placenta.csv,0.01,0.01,5,0.0,5,0.0,1,0.0,1,0.0
thyroid.csv,0.01,0.01,25,0.08,20,0.05,19,0.10526315789473684,15,0.06666666666666667
bone.csv,0.01,0.01,1,1.0,1,1.0,1,1.0,1,1.0
biliary_tract.csv,0.01,0.01,14,0.5714285714285714,12,0.6666666666666666,10,0.6,9,0.6666666666666666
lung.csv,0.01,0.01,72,0.1527777777777778,73,0.136986301369863,41,0.2682926829268293,47,0.23404255319148937
oesophagus.csv,0.01,0.01,9,0.6666666666666666,8,0.75,6,1.0,7,0.8571428571428571
large_intestine.csv,0.01,0.01,95,0.22105263157894736,97,0.2268041237113402,60,0.3333333333333333,59,0.3389830508474576
breast.csv,0.01,0.01,26,0.5384615384615384,24,0.625,14,0.7142857142857143,14,0.7142857142857143
prostate.csv,0.01,0.01,10,0.5,9,0.5555555555555556,8,0.625,7,0.5714285714285714
urinary_tract.csv,0.01,0.01,30,0.4,27,0.4444444444444444,21,0.5714285714285714,19,0.631578947368421
haematopoietic_and_lymphoid_tissue.csv,0.01,0.01,25,0.88,27,0.8888888888888888,17,0.8823529411764706,21,0.9523809523809523
stomach.csv,0.01,0.01,44,0.22727272727272727,44,0.25,18,0.5,23,0.43478260869565216
ovary.csv,0.01,0.01,6,0.6666666666666666,6,0.6666666666666666,4,0.75,4,0.75
salivary_gland.csv,0.01,0.01,2,0.5,2,0.5,1,1.0,0,0
kidney.csv,0.01,0.01,11,0.9090909090909091,11,0.9090909090909091,8,0.875,8,1.0
liver.csv,0.01,0.01,31,0.3870967741935484,30,0.36666666666666664,29,0.3103448275862069,23,0.34782608695652173
cervix.csv,0.01,0.01,13,0.5384615384615384,13,0.5384615384615384,6,0.8333333333333334,6,0.8333333333333334
small_intestine.csv,0.01,0.01,6,0.3333333333333333,6,0.3333333333333333,4,0.5,4,0.5
endometrium.csv,0.01,0.01,48,0.3541666666666667,47,0.3617021276595745,20,0.55,19,0.5263157894736842
upper_aerodigestive_tract.csv,0.01,0.01,61,0.16393442622950818,61,0.11475409836065574,55,0.18181818181818182,66,0.15151515151515152
skin.csv,0.01,0.01,117,0.11965811965811966,123,0.12195121951219512,87,0.16091954022988506,94,0.14893617021276595
pancreas.csv,0.01,0.01,13,0.6923076923076923,13,0.6923076923076923,7,0.8571428571428571,7,0.8571428571428571
central_nervous_system.csv,0.01,0.01,21,0.6666666666666666,21,0.6190476190476191,16,0.6875,16,0.6875
autonomic_ganglia.csv,0.01,0.01,1,1.0,1,1.0,1,1.0,1,1.0
soft_tissue.csv,0.01,0.01,12,0.3333333333333333,9,0.4444444444444444,6,0.16666666666666666,8,0.375
adrenal_gland.csv,0.01,0.01,4,1.0,3,1.0,2,1.0,1,1.0
